{
    "name": "BovineLabs.Event",
    "references": [
        "GUID:e0cd26848372d4e5c891c569017e11f1",
        "GUID:734d92eba21c94caba915361bd5ac177",
        "GUID:d8b63aba1907145bea998dd612889d6b",
        "GUID:8819f35a0fc84499b990e90a4ca1911f",
        "GUID:a5baed0c9693541a5bd947d336ec7659",
        "GUID:e04e6c86a9f3947eb95fded39f9e60cc",
        "GUID:8a2eafa29b15f444eb6d74f94a930e1d",
        "GUID:44dcb2bf5b9be4b5aa76674c8edcd1d5",
        "GUID:2665a8d13d1b3f18800f46e256720795"
    ],
    "includePlatforms": [],
    "excludePlatforms": [],
    "allowUnsafeCode": true,
    "overrideReferences": false,
    "precompiledReferences": [],
    "autoReferenced": true,
    "defineConstraints": [],
    "versionDefines": [],
    "noEngineReferences": false
}